Text Mining
…
library(janeaustenr)

## Warning: 'janeaustenr'R4.1.3 

library(stringr)

## Warning: 'stringr'R4.1.3 

original_books <- austen_books()%>% 
  group_by(book) %>% 
  mutate(linenumber = row_number(),chapter = cumsum(str_detect(text,regex("^chapter [\\divxlc]",ignore_case = TRUE)))) %>% ungroup()

  original_books

## # A tibble: 73,422 x 4
##    text                    book                linenumber chapter
##    <chr>                   <fct>                    <int>   <int>
##  1 "SENSE AND SENSIBILITY" Sense & Sensibility          1       0
##  2 ""                      Sense & Sensibility          2       0
##  3 "by Jane Austen"        Sense & Sensibility          3       0
##  4 ""                      Sense & Sensibility          4       0
##  5 "(1811)"                Sense & Sensibility          5       0
##  6 ""                      Sense & Sensibility          6       0
##  7 ""                      Sense & Sensibility          7       0
##  8 ""                      Sense & Sensibility          8       0
##  9 ""                      Sense & Sensibility          9       0
## 10 "CHAPTER 1"             Sense & Sensibility         10       1
## # ... with 73,412 more rows

tidy_books <- original_books %>%
  unnest_tokens(word,text)

tidy_books

## # A tibble: 725,055 x 4
##    book                linenumber chapter word       
##    <fct>                    <int>   <int> <chr>      
##  1 Sense & Sensibility          1       0 sense      
##  2 Sense & Sensibility          1       0 and        
##  3 Sense & Sensibility          1       0 sensibility
##  4 Sense & Sensibility          3       0 by         
##  5 Sense & Sensibility          3       0 jane       
##  6 Sense & Sensibility          3       0 austen     
##  7 Sense & Sensibility          5       0 1811       
##  8 Sense & Sensibility         10       1 chapter    
##  9 Sense & Sensibility         10       1 1          
## 10 Sense & Sensibility         13       1 the        
## # ... with 725,045 more rows

data("stop_words")
tidy_books <- tidy_books %>% anti_join(stop_words)

## Joining with `by = join_by(word)`

tidy_books %>% count(word,sort = TRUE)

## # A tibble: 13,914 x 2
##    word       n
##    <chr>  <int>
##  1 miss    1855
##  2 time    1337
##  3 fanny    862
##  4 dear     822
##  5 lady     817
##  6 sir      806
##  7 day      797
##  8 emma     787
##  9 sister   727
## 10 house    699
## # ... with 13,904 more rows
…
hgwells <- gutenberg_download(c(35,36,5230,159))

## Determining mirror for Project Gutenberg from https://www.gutenberg.org/robot/harvest

## Using mirror http://aleph.gutenberg.org

tidy_hgwells <- hgwells %>% unnest_tokens(word,text)%>%anti_join(stop_words)

## Joining with `by = join_by(word)`

#most frequent words used by Wells
tidy_hgwells %>% count(word,sort = TRUE)

## # A tibble: 11,811 x 2
##    word       n
##    <chr>  <int>
##  1 time     461
##  2 people   302
##  3 door     260
##  4 heard    249
##  5 black    232
##  6 stood    229
##  7 white    224
##  8 hand     218
##  9 kemp     213
## 10 eyes     210
## # ... with 11,801 more rows

Brontes work

bronte <- gutenberg_download(c(1260,768,969,9182,767))

tidy_bronte <- bronte%>%unnest_tokens(word,text)%>%anti_join(stop_words)

## Joining with `by = join_by(word)`

tidy_bronte %>% count(word,sort = TRUE)

## # A tibble: 23,297 x 2
##    word       n
##    <chr>  <int>
##  1 time    1065
##  2 miss     854
##  3 day      825
##  4 hand     767
##  5 eyes     714
##  6 dont    666
##  7 night    648
##  8 heart    638
##  9 looked   601
## 10 door     591
## # ... with 23,287 more rows
library(tidyr)

## Warning: 'tidyr'R4.1.3 

frequency <- bind_rows(mutate(tidy_bronte,author = "Bronte Sisters"),mutate(tidy_hgwells,author = "H.G.Wells"),mutate(tidy_books,author = "Jane Austen"))%>%
  mutate(word = str_extract(word,"[a-z']+"))%>%
  count(author,word) %>% group_by(author)%>%
  mutate(proportion = n/sum(n))%>%
  select(-n)%>%
  spread(author,proportion)%>%
  gather(author,proportion,`Bronte Sisters`:`H.G.Wells`)

frequency 

## # A tibble: 57,116 x 4
##    word        `Jane Austen` author          proportion
##    <chr>               <dbl> <chr>                <dbl>
##  1 a              0.00000919 Bronte Sisters  0.0000587 
##  2 a'n't          0.00000460 Bronte Sisters NA         
##  3 aback         NA          Bronte Sisters  0.00000391
##  4 abaht         NA          Bronte Sisters  0.00000391
##  5 abandon       NA          Bronte Sisters  0.0000313 
##  6 abandoned      0.00000460 Bronte Sisters  0.0000900 
##  7 abandoning    NA          Bronte Sisters  0.00000391
##  8 abandonment   NA          Bronte Sisters  0.0000196 
##  9 abart         NA          Bronte Sisters NA         
## 10 abase         NA          Bronte Sisters  0.00000391
## # ... with 57,106 more rows
…
