Sentiment Analysis
…
library(tidytext)
tidy_books <- austen_books()%>%
  group_by(book)%>%
  mutate(linenumber = row_number(),chapter = cumsum(str_detect(text,regex("^chapter[\\divxlc]",ignore_case = TRUE))))%>%
  ungroup()%>%unnest_tokens(word,text)

Joy inner join

nrcjoy <- get_sentiments("nrc")%>%filter(sentiment == "joy")
tidy_books %>% filter(book == "Emma")%>%
  inner_join(nrcjoy)%>%count(word,sort = TRUE)

## Joining with `by = join_by(word)`

## # A tibble: 301 x 2
##    word          n
##    <chr>     <int>
##  1 good        359
##  2 friend      166
##  3 hope        143
##  4 happy       125
##  5 love        117
##  6 deal         92
##  7 found        92
##  8 present      89
##  9 kind         82
## 10 happiness    76
## # ... with 291 more rows
…
bing_word_counts <- tidy_books %>% 
  inner_join(get_sentiments("bing")) %>%
  count(word,sentiment,sort = TRUE)%>%ungroup

## Joining with `by = join_by(word)`

## Warning in inner_join(., get_sentiments("bing")): Each row in `x` is expected to match at most 1 row in `y`.
## i Row 435434 of `x` matches multiple rows.
## i If multiple matches are expected, set `multiple = "all"` to silence this
##   warning.

bing_word_counts

## # A tibble: 2,585 x 3
##    word     sentiment     n
##    <chr>    <chr>     <int>
##  1 miss     negative   1855
##  2 well     positive   1523
##  3 good     positive   1380
##  4 great    positive    981
##  5 like     positive    725
##  6 better   positive    639
##  7 enough   positive    613
##  8 happy    positive    534
##  9 love     positive    495
## 10 pleasure positive    462
## # ... with 2,575 more rows
…
#Define stop words

custom_stop_words <- bind_rows(data_frame(word = c("miss"),lexicon = c("custom")),stop_words)

## Warning: `data_frame()` was deprecated in tibble 1.1.0.
## i Please use `tibble()` instead.
## This warning is displayed once every 8 hours.
## Call `lifecycle::last_lifecycle_warnings()` to see where this warning was
## generated.

custom_stop_words

## # A tibble: 1,150 x 2
##    word        lexicon
##    <chr>       <chr>  
##  1 miss        custom 
##  2 a           SMART  
##  3 a's         SMART  
##  4 able        SMART  
##  5 about       SMART  
##  6 above       SMART  
##  7 according   SMART  
##  8 accordingly SMART  
##  9 across      SMART  
## 10 actually    SMART  
## # ... with 1,140 more rows
…
